S0030000FC
S1134000CC001A1642DDCD41201642EACD414716B6
S113401042EA1C025008180BCF024286097A024079
S1134020CEFFFF363236320435F90430F01D02502B
S113403008CD415B1642EA1642181642B5CE40FE40
S1134040A6009727091642671642B50820F286C0D3
S113405016426F1642B5CE410FA6009727091642A5
S1134060671642B50820F2CD41711642EA180B0FCB
S11340700033180B0000324C32014C3202CEFFFFE9
S113408036323632363236320435F5180B0C0032FD
S1134090CD41AB1642EA7900F01C025A0F1D0262B0
S11340A0F0CE0110CD0000B76434CE42081AE5A664
S11340B00030164309B76452B746B7541C0250087F
S11340C07A02581D025008B6026084F036B75432A2
S11340D0181726F3B75458B74526CCB754C610481A
S11340E0B745811026C1CD41FF1642EA3F34CEFFC9
S11340F0FF34303430343034300435F5303D20432F
S113410061726C65746F6E20556E69762E20002086
S11341102053797374656D7320456E672E202000DB
S113412044656D6F2050726F6772616D20666F72A7
S1134130204178696F6D2050726F6A656374204204
S11341406F6172640D0A00372D7365676D656E7457
S113415020646973706C61790D0A005072696E7421
S1134160696E67206F6E20746865204C43440D0AA5
S113417000466C61736820746865204C4544532084
S11341803A203129204C4544312632206F6E6C7917
S1134190206F6E2E202032292E204C4544332634A5
S11341A0206F6E6C79206F6E0D0A00546573742055
S11341B04B6579706164203A20486974206B657995
S11341C02074686174206973207072696E74656408
S11341D02E2050726F6772616D2077696C6C206E4F
S11341E06F7420636F6E74696E756520756E746983
S11341F06C20796F7520646F20736F2E0D0A000D8B
S11342000A446F6E650D0A000102030A0405060BD9
S11342100708090C0E000F0D180BCF0242180B00F3
S113422002401C025A0F4DF040180BFE0252180BAC
S11342300002501D02400E1642B5860216427B163D
S113424042B5862C16426F1642C3860E16426F166E
S113425042C3860116426F1642BE868016426F160E
S113426042C31D02400E3D1C0240041642A83D1DDF
S11342700240041642A81C0240043D1C0248801659
S113428042CCF60258C4F0840F18067A02581D0274
S113429040081642CC1C0240081642CC1D024008BD
S11342A01642CC1D0248803D364444444416427BA9
S11342B03216427B3D34CEC34E1642D5303D070301
S11342C007013D34CE270E1642D5303D34CE03E6E9
S11342D01642D5303DA7A7A7A70926F93D5AC85BC2
S11342E0C9180B0C00CA4CCB0C3D3B8600E6EC16FF
S11342F042FBC10027034220F43A3D4FCC80FC5BD3
S1134300CF3D4FCC20FCD6CF3D840F810922068BB4
S11343103016431B3D8B3716431B3D4FCC80FC5A54
S1054320CF3D8B
S9030000FC
