                        .module assign51.c
                        .area data
 0000           _keys::
 0000                   .blkb 2
                        .area idata
 0000 3134              .byte 49,52
                        .area data
 0002                   .blkb 2
                        .area idata
 0002 3745              .byte 55,'E
                        .area data
 0004                   .blkb 2
                        .area idata
 0004 3235              .byte 50,53
                        .area data
 0006                   .blkb 2
                        .area idata
 0006 3830              .byte 56,48
                        .area data
 0008                   .blkb 2
                        .area idata
 0008 3336              .byte 51,54
                        .area data
 000A                   .blkb 2
                        .area idata
 000A 3946              .byte 57,'F
                        .area data
 000C                   .blkb 2
                        .area idata
 000C 4142              .byte 'A,'B
                        .area data
 000E                   .blkb 2
                        .area idata
 000E 4344              .byte 'C,'D
                        .area data
 0010                   .dbfile M:\SYSC2003\Assignment5\51\assign51.c
 0010                   .dbsym e keys _keys A[16:4:4]c
 0010           _log2::
 0010                   .blkb 2
                        .area idata
 0010 0000              .byte 0,0
                        .area data
 0012                   .dbfile M:\SYSC2003\Assignment5\51\assign51.c
 0012                   .blkb 2
                        .area idata
 0012 0100              .byte 1,0
                        .area data
 0014                   .dbfile M:\SYSC2003\Assignment5\51\assign51.c
 0014                   .blkb 2
                        .area idata
 0014 0200              .byte 2,0
                        .area data
 0016                   .dbfile M:\SYSC2003\Assignment5\51\assign51.c
 0016                   .blkb 2
                        .area idata
 0016 0000              .byte 0,0
                        .area data
 0018                   .dbfile M:\SYSC2003\Assignment5\51\assign51.c
 0018                   .blkb 1
                        .area idata
 0018 03                .byte 3
                        .area data
 0019                   .dbfile M:\SYSC2003\Assignment5\51\assign51.c
 0019                   .dbsym e log2 _log2 A[9:9]c
 0019           _key::
 0019                   .blkb 1
                        .area idata
 0019 00                .byte 0
                        .area data
 001A                   .dbfile M:\SYSC2003\Assignment5\51\assign51.c
 001A                   .dbsym e key _key c
 001A           _done::
 001A                   .blkb 2
                        .area idata
 001A 0000              .word 0
                        .area data
 001C                   .dbfile M:\SYSC2003\Assignment5\51\assign51.c
 001C                   .dbsym e done _done I
 001C           _speed::
 001C                   .blkb 1
                        .area idata
 001C 64                .byte 100
                        .area data
 001D                   .dbfile M:\SYSC2003\Assignment5\51\assign51.c
 001D                   .dbsym e speed _speed c
 001D           _temp::
 001D                   .blkb 1
                        .area idata
 001D 18                .byte 24
                        .area data
 001E                   .dbfile M:\SYSC2003\Assignment5\51\assign51.c
 001E                   .dbsym e temp _temp c
                        .area text
 0000                   .dbfile M:\SYSC2003\Assignment5\51\assign51.c
 0000                   .dbfunc e kb_ISR _kb_ISR fV
 0000           ;          ?temp -> -5,x
 0000           ;              i -> -3,x
 0000           ;       lowerPTP -> -1,x
 0000           _kb_ISR::
 0000 34                pshx
 0001 B775              tfr s,x
 0003 1B96              leas -10,sp
 0005                   .dbline -1
 0005                   .dbline 30
 0005           ; /*
 0005           ; *assign51.c 
 0005           ; *
 0005           ; * @author David Yao(100861054) and Amente Bekele(100875934)
 0005           ; * Construct an INTERRUPT-BASED version of Exercise 4.1, 
 0005           ; *that is, an INTERRUPTBASED program that will detect the keys 
 0005           ; pressed in the keypad and act accordingly.
 0005           ; *
 0005           ; */
 0005           ; #include "hcs12dp256.h"
 0005           ; 
 0005           ; 
 0005           ; ////////////////////////////////////////////////////////////////////////////////////////////////////////
 0005           ; // Map for keys 
 0005           ; char keys[4][4]= {{'1','4','7','E'},
 0005           ;                                 {'2','5','8','0'}, 
 0005           ;                                 {'3','6','9','F'},
 0005           ;                                 {'A','B','C','D'}};
 0005           ; // Precomputed lograithm table of 2 for easing tasks a bit                              
 0005           ; char log2[9] = {0, 0, 1, 0, 2, 0, 0, 0, 3};   
 0005           ; 
 0005           ; // key var to pass between the ISR and the main loop
 0005           ; char key = 0;done =0;
 0005           ; char speed=100, temp=24; // Dummy data for speed and temperature
 0005           ; 
 0005           ; 
 0005           ; // Set up the interrupt handler
 0005           ; #pragma interrupt_handler kb_ISR()
 0005           ; void kb_ISR()
 0005           ; {
 0005                   .dbline 33
 0005           ;        int i; 
 0005           ;        char lowerPTP;  
 0005           ;        asm("SEI"); // disable maskable interrupts 
 0005 1410                      SEI
 0007           
 0007                   .dbline 34
 0007           ;        PIEH = 0x00;
 0007 790266            clr 0x266
 000A                   .dbline 35
 000A           ;        PIFH = PIFH; // ACK all interrupts
 000A                   ; vol
 000A F60267            ldab 0x267
 000D 7B0267            stab 0x267
 0010                   .dbline 37
 0010           ;        // check each row for key pressed       
 0010           ;        for(lowerPTP=0x01; lowerPTP<=0x08; lowerPTP<<=1)
 0010 C601              ldab #1
 0012 6B1F              stab -1,x
 0014 18200090          lbra L7
 0018           L4:
 0018                   .dbline 38
 0018           ;        {       
 0018                   .dbline 39
 0018           ;                PTP &= 0xF0; // clear the lower 4 bits of PTP
 0018 1D02580F          bclr 0x258,#0xf
 001C                   .dbline 40
 001C           ;                PTP += lowerPTP; // replace the lower 4 bits with the ones we need             
 001C E61F              ldab -1,x
 001E 87                clra
 001F 6C18              std -8,x
 0021                   ; vol
 0021 F60258            ldab 0x258
 0024 87                clra
 0025 E318              addd -8,x
 0027 7B0258            stab 0x258
 002A                   .dbline 43
 002A           ;               
 002A           ;                // Check for col 1
 002A           ;                if(PTH == 0x10)
 002A                   ; vol
 002A F60260            ldab 0x260
 002D C110              cmpb #16
 002F 2617              bne L8
 0031                   .dbline 44
 0031           ;                {
 0031                   .dbline 45
 0031           ;                       key = keys[0][log2[lowerPTP]];
 0031 E61F              ldab -1,x
 0033 87                clra
 0034 C30010            addd #_log2
 0037 B7C6              xgdy
 0039 E640              ldab 0,y
 003B 87                clra
 003C C30000            addd #_keys
 003F B7C6              xgdy
 0041 E640              ldab 0,y
 0043 7B0019            stab _key
 0046                   .dbline 46
 0046           ;                       break;
 0046 2068              bra L6
 0048           L8:
 0048                   .dbline 49
 0048           ;                }
 0048           ;                // Check for col 2
 0048           ;                if(PTH == 0x20)
 0048                   ; vol
 0048 F60260            ldab 0x260
 004B C120              cmpb #32
 004D 2617              bne L10
 004F                   .dbline 50
 004F           ;                {
 004F                   .dbline 51
 004F           ;               key = keys[1][log2[lowerPTP]];
 004F E61F              ldab -1,x
 0051 87                clra
 0052 C30010            addd #_log2
 0055 B7C6              xgdy
 0057 E640              ldab 0,y
 0059 87                clra
 005A C30004            addd #_keys+4
 005D B7C6              xgdy
 005F E640              ldab 0,y
 0061 7B0019            stab _key
 0064                   .dbline 52
 0064           ;                       break;
 0064 204A              bra L6
 0066           L10:
 0066                   .dbline 55
 0066           ;                }
 0066           ;                // Check for col 3
 0066           ;                if(PTH == 0x40)
 0066                   ; vol
 0066 F60260            ldab 0x260
 0069 C140              cmpb #64
 006B 2617              bne L13
 006D                   .dbline 56
 006D           ;                {
 006D                   .dbline 57
 006D           ;                       key = keys[2][log2[lowerPTP]];
 006D E61F              ldab -1,x
 006F 87                clra
 0070 C30010            addd #_log2
 0073 B7C6              xgdy
 0075 E640              ldab 0,y
 0077 87                clra
 0078 C30008            addd #_keys+8
 007B B7C6              xgdy
 007D E640              ldab 0,y
 007F 7B0019            stab _key
 0082                   .dbline 58
 0082           ;                       break;
 0082 202C              bra L6
 0084           L13:
 0084                   .dbline 61
 0084           ;                }
 0084           ;                // Check for col 4
 0084           ;                if(PTH == 0x80)
 0084                   ; vol
 0084 F60260            ldab 0x260
 0087 C180              cmpb #128
 0089 2617              bne L16
 008B                   .dbline 62
 008B           ;                {         
 008B                   .dbline 63
 008B           ;                       key = keys[3][log2[lowerPTP]];  
 008B E61F              ldab -1,x
 008D 87                clra
 008E C30010            addd #_log2
 0091 B7C6              xgdy
 0093 E640              ldab 0,y
 0095 87                clra
 0096 C3000C            addd #_keys+12
 0099 B7C6              xgdy
 009B E640              ldab 0,y
 009D 7B0019            stab _key
 00A0                   .dbline 64
 00A0           ;                       break;  
 00A0 200E              bra L6
 00A2           L16:
 00A2                   .dbline 66
 00A2           L5:
 00A2                   .dbline 37
 00A2 E61F              ldab -1,x
 00A4 87                clra
 00A5 59                lsld
 00A6 6B1F              stab -1,x
 00A8           L7:
 00A8                   .dbline 37
 00A8 E61F              ldab -1,x
 00AA C108              cmpb #8
 00AC 1823FF68          lbls L4
 00B0           L6:
 00B0                   .dbline 68
 00B0           ;                }
 00B0           ;        }
 00B0           ;        
 00B0           ;        switch (key)
 00B0 F60019            ldab _key
 00B3 87                clra
 00B4 6C1B              std -5,x
 00B6 8C0030            cpd #48
 00B9 2749              beq L24
 00BB EC1B              ldd -5,x
 00BD 8C0030            cpd #48
 00C0 2D4A              blt L19
 00C2           L25:
 00C2 EC1B              ldd -5,x
 00C4 8C0044            cpd #68
 00C7 2722              beq L23
 00C9 EC1B              ldd -5,x
 00CB 8C0045            cpd #69
 00CE 2702              beq L22
 00D0 203A              bra L19
 00D2           X0:
 00D2                   .dbline 69
 00D2           ;                       {
 00D2           L22:
 00D2                   .dbline 71
 00D2           ;                               case 'E':
 00D2           ;                                        speed--;
 00D2 F6001C            ldab _speed
 00D5 87                clra
 00D6 830001            subd #1
 00D9 7B001C            stab _speed
 00DC                   .dbline 72
 00DC           ;                                        updateStats(speed, temp); //Update the value on the LCD
 00DC F6001D            ldab _temp
 00DF 87                clra
 00E0 6C80              std 0,sp
 00E2 F6001C            ldab _speed
 00E5 87                clra
 00E6 160205            jsr _updateStats
 00E9                   .dbline 73
 00E9           ;                                        break;
 00E9 2027              bra L20
 00EB           L23:
 00EB                   .dbline 76
 00EB           ;                                        
 00EB           ;                               case 'D':
 00EB           ;                                        speed++;
 00EB F6001C            ldab _speed
 00EE 87                clra
 00EF C30001            addd #1
 00F2 7B001C            stab _speed
 00F5                   .dbline 77
 00F5           ;                                        updateStats(speed, temp);//Update the value on the LCD
 00F5 F6001D            ldab _temp
 00F8 87                clra
 00F9 6C80              std 0,sp
 00FB F6001C            ldab _speed
 00FE 87                clra
 00FF 160205            jsr _updateStats
 0102                   .dbline 78
 0102           ;                                        break;                          
 0102 200E              bra L20
 0104           L24:
 0104                   .dbline 81
 0104           ;                                       
 0104           ;                               case '0':
 0104           ;                                        done = 1;                                                               
 0104 CC0001            ldd #1
 0107 7C001A            std _done
 010A                   .dbline 82
 010A           ;                                        break;
 010A 2006              bra L20
 010C           L19:
 010C                   .dbline 85
 010C           ;                                        
 010C           ;                           default:
 010C           ;                                       delay(220);
 010C CC00DC            ldd #220
 010F 160130            jsr _delay
 0112                   .dbline 87
 0112           ;                       
 0112           ;                       }
 0112           L20:
 0112                   .dbline 90
 0112           ;               
 0112           ;        
 0112           ;        printf("%c",key);
 0112 F60019            ldab _key
 0115 87                clra
 0116 6C80              std 0,sp
 0118 CC033C            ldd #L26
 011B 160000            jsr _printf
 011E                   .dbline 91
 011E           ;      key = 0;  
 011E 790019            clr _key
 0121                   .dbline 92
 0121           ;        PTP |= 0x0F; // start checking on all rows again               
 0121 1C02580F          bset 0x258,#15
 0125                   .dbline 93
 0125           ;        PIEH = 0xF0; 
 0125 C6F0              ldab #240
 0127 7B0266            stab 0x266
 012A                   .dbline 94
 012A           ;        asm("CLI"); // renable maskable interrupts
 012A 10EF                      CLI
 012C           
 012C                   .dbline -2
 012C                   .dbline 95
 012C           ; }
 012C           L3:
 012C B757              tfr x,s
 012E 30                pulx
 012F                   .dbline 0 ; func end
 012F 0B                rti
 0130                   .dbsym l i -3 I
 0130                   .dbsym l lowerPTP -1 c
 0130                   .dbend
 0130                   .dbfunc e delay _delay fV
 0130           ;              i -> -2,x
 0130           ;             ms -> 2,x
 0130           _delay::
 0130 3B                pshd
 0131 34                pshx
 0132 B775              tfr s,x
 0134 1B9E              leas -2,sp
 0136                   .dbline -1
 0136                   .dbline 99
 0136           ; 
 0136           ; //Delay subroutine,  
 0136           ; void delay(int ms)
 0136           ; {
 0136                   .dbline 101
 0136           ;    int i;
 0136           ;    TSCR1= 0x90;
 0136 C690              ldab #144
 0138 7B0046            stab 0x46
 013B                   .dbline 102
 013B           ;    TSCR2 = 0x03;
 013B C603              ldab #3
 013D 7B004D            stab 0x4d
 0140                   .dbline 103
 0140           ;    TIOS = 0x01;
 0140 C601              ldab #1
 0142 7B0040            stab 0x40
 0145                   .dbline 104
 0145           ;    for (i=0;i<ms;i++)
 0145 CC0000            ldd #0
 0148 6C1E              std -2,x
 014A 2015              bra L31
 014C           L28:
 014C                   .dbline 105
 014C           ;    {  
 014C                   .dbline 106
 014C           ;        TC0 = TCNT+1000;
 014C                   ; vol
 014C FC0044            ldd 0x44
 014F C303E8            addd #1000
 0152 7C0050            std 0x50
 0155           L32:
 0155                   .dbline 107
 0155           L33:
 0155                   .dbline 107
 0155 1F004E01FB        brclr 0x4e,#1,L32
 015A                   .dbline 108
 015A           L29:
 015A                   .dbline 104
 015A EC1E              ldd -2,x
 015C C30001            addd #1
 015F 6C1E              std -2,x
 0161           L31:
 0161                   .dbline 104
 0161 EC1E              ldd -2,x
 0163 AC02              cpd 2,x
 0165 2DE5              blt L28
 0167                   .dbline 109
 0167           ;        while(!(TFLG1 & 0x01));        
 0167           ;    }   
 0167           ;    TSCR1 = 0x00;
 0167 790046            clr 0x46
 016A                   .dbline -2
 016A                   .dbline 111
 016A           ;    
 016A           ; }
 016A           L27:
 016A B757              tfr x,s
 016C 30                pulx
 016D 1B82              leas 2,sp
 016F                   .dbline 0 ; func end
 016F 3D                rts
 0170                   .dbsym l i -2 I
 0170                   .dbsym l ms 2 I
 0170                   .dbend
 0170           _speedStr::
 0170 0053              .word 83
 0172 0070              .word 112
 0174 0065              .word 101
 0176 0065              .word 101
 0178 0064              .word 100
 017A 003A              .word 58
 017C                   .dbsym e speedStr _speedStr A[12:6]I
 017C           _temperatureStr::
 017C 0054              .word 84
 017E 0065              .word 101
 0180 006D              .word 109
 0182 0070              .word 112
 0184 0065              .word 101
 0186 0072              .word 114
 0188 0061              .word 97
 018A 0074              .word 116
 018C 0075              .word 117
 018E 0072              .word 114
 0190 0065              .word 101
 0192 003A              .word 58
 0194 0020              .word 32
 0196                   .dbsym e temperatureStr _temperatureStr A[26:13]I
 0196           _itoaTable::
 0196 0030              .word 48
 0198 0031              .word 49
 019A 0032              .word 50
 019C 0033              .word 51
 019E 0034              .word 52
 01A0 0035              .word 53
 01A2 0036              .word 54
 01A4 0037              .word 55
 01A6 0038              .word 56
 01A8 0039              .word 57
 01AA                   .dbsym e itoaTable _itoaTable A[20:10]I
 01AA                   .dbfunc e displayStrs _displayStrs fV
 01AA           ;              i -> -2,x
 01AA           _displayStrs::
 01AA 34                pshx
 01AB B775              tfr s,x
 01AD 1B9E              leas -2,sp
 01AF                   .dbline -1
 01AF                   .dbline 118
 01AF           ; ////////////////////////////////////////////////////////////////////////////////////
 01AF           ; const speedStr[] = { 'S', 'p', 'e', 'e', 'd', ':' };
 01AF           ; const temperatureStr[] = { 'T', 'e', 'm', 'p', 'e', 'r', 'a', 't', 'u', 'r', 'e', ':', ' ' };
 01AF           ; const itoaTable[] = {'0', '1', '2', '3', '4', '5', '6', '7', '8', '9' };
 01AF           ; 
 01AF           ; void displayStrs()
 01AF           ; {
 01AF                   .dbline 121
 01AF           ;        int i;//counter var
 01AF           ;        
 01AF           ;        LCD_instruction(0x0C); // Turn off cursor and blink
 01AF CC000C            ldd #12
 01B2 160000            jsr _LCD_instruction
 01B5                   .dbline 122
 01B5           ;        LCD_instruction(0x01); // clear screen
 01B5 CC0001            ldd #1
 01B8 160000            jsr _LCD_instruction
 01BB                   .dbline 124
 01BB           ;        
 01BB           ;        for (i=0; i<6; i++)
 01BB CC0000            ldd #0
 01BE 6C1E              std -2,x
 01C0           L36:
 01C0                   .dbline 125
 01C0                   .dbline 126
 01C0 EC1E              ldd -2,x
 01C2 59                lsld
 01C3 C30170            addd #_speedStr
 01C6 B7C6              xgdy
 01C8 EC40              ldd 0,y
 01CA 160000            jsr _LCD_display
 01CD                   .dbline 127
 01CD           L37:
 01CD                   .dbline 124
 01CD EC1E              ldd -2,x
 01CF C30001            addd #1
 01D2 6C1E              std -2,x
 01D4                   .dbline 124
 01D4 EC1E              ldd -2,x
 01D6 8C0006            cpd #6
 01D9 2DE5              blt L36
 01DB                   .dbline 129
 01DB           ;        {
 01DB           ;                LCD_display(speedStr[i]);
 01DB           ;        }
 01DB           ;        
 01DB           ;        LCD_instruction(0xC0); // go to the next line
 01DB CC00C0            ldd #192
 01DE 160000            jsr _LCD_instruction
 01E1                   .dbline 131
 01E1           ;       
 01E1           ;        for (i=0; i<12; i++)
 01E1 CC0000            ldd #0
 01E4 6C1E              std -2,x
 01E6           L40:
 01E6                   .dbline 132
 01E6                   .dbline 133
 01E6 EC1E              ldd -2,x
 01E8 59                lsld
 01E9 C3017C            addd #_temperatureStr
 01EC B7C6              xgdy
 01EE EC40              ldd 0,y
 01F0 160000            jsr _LCD_display
 01F3                   .dbline 134
 01F3           L41:
 01F3                   .dbline 131
 01F3 EC1E              ldd -2,x
 01F5 C30001            addd #1
 01F8 6C1E              std -2,x
 01FA                   .dbline 131
 01FA EC1E              ldd -2,x
 01FC 8C000C            cpd #12
 01FF 2DE5              blt L40
 0201                   .dbline -2
 0201                   .dbline 135
 0201           ;        {
 0201           ;                LCD_display(temperatureStr[i]);
 0201           ;        }      
 0201           ; }
 0201           L35:
 0201 B757              tfr x,s
 0203 30                pulx
 0204                   .dbline 0 ; func end
 0204 3D                rts
 0205                   .dbsym l i -2 I
 0205                   .dbend
 0205                   .dbfunc e updateStats _updateStats fV
 0205           ;           temp -> 7,x
 0205           ;          speed -> 3,x
 0205           _updateStats::
 0205 3B                pshd
 0206 34                pshx
 0207 B775              tfr s,x
 0209                   .dbline -1
 0209                   .dbline 138
 0209           ; 
 0209           ; void updateStats(char speed, char temp)
 0209           ; {
 0209                   .dbline 140
 0209           ;        //asm("SEI");
 0209           ;        LCD_instruction(0x86);
 0209 CC0086            ldd #134
 020C 160000            jsr _LCD_instruction
 020F                   .dbline 141
 020F           ;        LCD_display(itoaTable[speed / 100]);                    // 1st digit
 020F E603              ldab 3,x
 0211 87                clra
 0212 CD0064            ldy #100
 0215 B7D6              exg x,y
 0217 1815              idivs
 0219 B7D6              exg x,y
 021B B7C6              xgdy
 021D 59                lsld
 021E C30196            addd #_itoaTable
 0221 B7C6              xgdy
 0223 EC40              ldd 0,y
 0225 160000            jsr _LCD_display
 0228                   .dbline 142
 0228           ;        LCD_display(itoaTable[(speed % 100) / 10]);     // 2nd digit
 0228 E603              ldab 3,x
 022A 87                clra
 022B CD0064            ldy #100
 022E B7D6              exg x,y
 0230 1815              idivs
 0232 B7D6              exg x,y
 0234 CD000A            ldy #10
 0237 B7D6              exg x,y
 0239 1815              idivs
 023B B7D6              exg x,y
 023D B7C6              xgdy
 023F 59                lsld
 0240 C30196            addd #_itoaTable
 0243 B7C6              xgdy
 0245 EC40              ldd 0,y
 0247 160000            jsr _LCD_display
 024A                   .dbline 143
 024A           ;        LCD_display(itoaTable[(speed % 100) % 10]);     // 3rd digit
 024A E603              ldab 3,x
 024C 87                clra
 024D CD0064            ldy #100
 0250 B7D6              exg x,y
 0252 1815              idivs
 0254 B7D6              exg x,y
 0256 CD000A            ldy #10
 0259 B7D6              exg x,y
 025B 1815              idivs
 025D B7D6              exg x,y
 025F 59                lsld
 0260 C30196            addd #_itoaTable
 0263 B7C6              xgdy
 0265 EC40              ldd 0,y
 0267 160000            jsr _LCD_display
 026A                   .dbline 144
 026A           ;        LCD_display('k'); LCD_display('m'); LCD_display('/'); LCD_display('h'); // display "km/h"
 026A CC006B            ldd #107
 026D 160000            jsr _LCD_display
 0270                   .dbline 144
 0270 CC006D            ldd #109
 0273 160000            jsr _LCD_display
 0276                   .dbline 144
 0276 CC002F            ldd #47
 0279 160000            jsr _LCD_display
 027C                   .dbline 144
 027C CC0068            ldd #104
 027F 160000            jsr _LCD_display
 0282                   .dbline 146
 0282           ;        
 0282           ;        LCD_instruction(0xCC);   
 0282 CC00CC            ldd #204
 0285 160000            jsr _LCD_instruction
 0288                   .dbline 147
 0288           ;        LCD_display(itoaTable[(temp % 100) / 10]);      // 2nd digit
 0288 E607              ldab 7,x
 028A 87                clra
 028B CD0064            ldy #100
 028E B7D6              exg x,y
 0290 1815              idivs
 0292 B7D6              exg x,y
 0294 CD000A            ldy #10
 0297 B7D6              exg x,y
 0299 1815              idivs
 029B B7D6              exg x,y
 029D B7C6              xgdy
 029F 59                lsld
 02A0 C30196            addd #_itoaTable
 02A3 B7C6              xgdy
 02A5 EC40              ldd 0,y
 02A7 160000            jsr _LCD_display
 02AA                   .dbline 148
 02AA           ;        LCD_display(itoaTable[(temp % 100) % 10]);      // 3rd digit
 02AA E607              ldab 7,x
 02AC 87                clra
 02AD CD0064            ldy #100
 02B0 B7D6              exg x,y
 02B2 1815              idivs
 02B4 B7D6              exg x,y
 02B6 CD000A            ldy #10
 02B9 B7D6              exg x,y
 02BB 1815              idivs
 02BD B7D6              exg x,y
 02BF 59                lsld
 02C0 C30196            addd #_itoaTable
 02C3 B7C6              xgdy
 02C5 EC40              ldd 0,y
 02C7 160000            jsr _LCD_display
 02CA                   .dbline 149
 02CA           ;        LCD_display(0b11011111); LCD_display('C');      // display a 'C' follow by a japanese maru (circle)
 02CA CC00DF            ldd #223
 02CD 160000            jsr _LCD_display
 02D0                   .dbline 149
 02D0 CC0043            ldd #67
 02D3 160000            jsr _LCD_display
 02D6                   .dbline 151
 02D6           ;        
 02D6           ;        PTP |= 0x0F; // restore PTP
 02D6 1C02580F          bset 0x258,#15
 02DA                   .dbline -2
 02DA                   .dbline 153
 02DA           ;        //asm("CLI");
 02DA           ; }
 02DA           L44:
 02DA B757              tfr x,s
 02DC 30                pulx
 02DD 1B82              leas 2,sp
 02DF                   .dbline 0 ; func end
 02DF 3D                rts
 02E0                   .dbsym l temp 6 I
 02E0                   .dbsym l temp 7 c
 02E0                   .dbsym l speed 2 I
 02E0                   .dbsym l speed 3 c
 02E0                   .dbend
 02E0                   .dbfunc e main _main fV
 02E0           _main::
 02E0 34                pshx
 02E1 B775              tfr s,x
 02E3 1B9E              leas -2,sp
 02E5                   .dbline -1
 02E5                   .dbline 157
 02E5           ; ////////////////////////////////////////////////////////////////////////////////////////////////////
 02E5           ; 
 02E5           ; void main()
 02E5           ; {
 02E5                   .dbline 160
 02E5           ;                
 02E5           ;        // Install ISR's       
 02E5           ;        asm("MOVW #_kb_ISR, $3FCC"); // install keypad isr
 02E5 180300003FCC              MOVW #_kb_ISR, $3FCC
 02EB           
 02EB                   .dbline 163
 02EB           ;        
 02EB           ;        // INIT
 02EB           ;        Lcd2PP_Init(); // init the LCD
 02EB 160000            jsr _Lcd2PP_Init
 02EE                   .dbline 165
 02EE           ;        
 02EE           ;        DDRT |= 0x60; 
 02EE 1C024260          bset 0x242,#96
 02F2                   .dbline 166
 02F2           ;        DDRP |= 0xA0; // Set bits 7 and 5 of port P to output
 02F2 1C025AA0          bset 0x25a,#160
 02F6                   .dbline 167
 02F6           ;        PTP |= 0x20; // stepper         
 02F6 1C025820          bset 0x258,#32
 02FA                   .dbline 168
 02FA           ;        DDRM = 0x08;
 02FA C608              ldab #8
 02FC 7B0252            stab 0x252
 02FF                   .dbline 169
 02FF           ;        DDRH = 0x0F;
 02FF C60F              ldab #15
 0301 7B0262            stab 0x262
 0304                   .dbline 170
 0304           ;        PTM = 0x08;  // enable U7_EN
 0304 C608              ldab #8
 0306 7B0250            stab 0x250
 0309                   .dbline 171
 0309           ;        PIEH = 0xF0; // enable interrrupts
 0309 C6F0              ldab #240
 030B 7B0266            stab 0x266
 030E                   .dbline 172
 030E           ;        PIFH = PIFH;  // clear all interrupts
 030E                   ; vol
 030E F60267            ldab 0x267
 0311 7B0267            stab 0x267
 0314                   .dbline 173
 0314           ;        PPSH = 0xF0; // select port H to detect the rising edge
 0314 C6F0              ldab #240
 0316 7B0265            stab 0x265
 0319                   .dbline 174
 0319           ;        PERH = 0x00; // disable internal pull down      
 0319 790264            clr 0x264
 031C                   .dbline 177
 031C           ;        
 031C           ;        // Main starts
 031C           ;        asm("CLI"); //Enable non maskable intruppts
 031C 10EF                      CLI
 031E           
 031E                   .dbline 178
 031E           ;        displayStrs(); 
 031E 1601AA            jsr _displayStrs
 0321                   .dbline 179
 0321           ;        updateStats(speed, temp);
 0321 F6001D            ldab _temp
 0324 87                clra
 0325 6C80              std 0,sp
 0327 F6001C            ldab _speed
 032A 87                clra
 032B 160205            jsr _updateStats
 032E                   .dbline 180
 032E           ;        PTP |= 0x0F; //check on all rows of the keypad
 032E 1C02580F          bset 0x258,#15
 0332           L46:
 0332                   .dbline 183
 0332                   .dbline 186
 0332           L47:
 0332                   .dbline 182
 0332           ; 
 0332           ;        while(!done)
 0332 FC001A            ldd _done
 0335 27FB              beq L46
 0337                   .dbline 188
 0337           ;        {              
 0337           ;                                               
 0337           ;                               
 0337           ;        }
 0337           ;        
 0337           ;        asm("SWI"); //end of program
 0337 3F                        SWI
 0338           
 0338                   .dbline -2
 0338                   .dbline 189
 0338           ; }
 0338           L45:
 0338 B757              tfr x,s
 033A 30                pulx
 033B                   .dbline 0 ; func end
 033B 3D                rts
 033C                   .dbend
 033C           L26:
 033C 256300            .byte 37,'c,0
