S0030000FC
S1091000FFF1090734565C
S1134000180BFF0033CC10043BFC10003BFC1003E6
S11340103BFC10023B1B9E164137CE10000F008064
S113402003164061FC1000C407C100272DC10127FD
S11340301AC102271BC103271CC104271DC1052760
S11340400AC106270BC107270C20144C3201200F8C
S11340504C3202200A4C320420054C320820002045
S1134060FE4C322016406B4D32203D34CEFFFF36DD
S11340703236320435F9303D4E00530045005700C6
S11340804E45004E57005345005357004E6561722C
S11340900A004661720A00466F7277617264200AF0
S11340A0004261636B77617264200A0050726F781A
S11340B0696D6974793A2000000000000000000076
S11340C0000000000000000A00202020204F62733E
S11340D07461636C653A0020202020446972656332
S11340E074696F6E3A00202020204172726F773A13
S11340F00053706565643A00000000000000000A87
S11341000054656D70657261747572653A000000E3
S113411000000000000A000A4B65797320507265A4
S1134120737365643A0000000000000000000000A2
S113413000000000000A003B3435EC8ACD0008CEB4
S113414040F7164224CD40F116424BEC8CCD0008CA
S1134150CE410D164224CD410116424BEC8ECD00CA
S113416010CE40B7164224CD40AC16424BB745CDD5
S113417040C916424B0E8E8008CD409216424B2009
S113418006CD408C16424BCD40D716424B0E8F4085
S113419008CD40A116424B2006CD409716424BCD88
S11341A040E616424BC407C100271EC1012722C1A5
S11341B0022726C103272AC104272EC1052732C19D
S11341C0062736C107273A203ECD407816424B20B9
S11341D036CD407A16424B202ECD407C16424B20E1
S11341E026CD407E16424B201ECD408016424B20E9
S11341F016CD408316424B200ECD408616424B20EE
S113420006CD408916424BEEF010EC00CD0010CEE6
S11342104125164224CD411716424BCC00016C882F
S113422031303A3D35343B593B2506C6306B0020CE
S113423004C6316B003A080436ED3A30313D5AC8B1
S11342405BC9180B0C00CA4CCB0C3D3B8600E6EC5A
S113425016425CC10027034220F43A3D4FCC80FC57
S10D42605BCF3D4FCC20FCD6CF3DD0
S9030000FC
