S10E4000CF3DFF16420587CE10008E56
S110400B101B27056A000820F6CE462FCDB5
S111401810008E462F2706180A307020F51669
S107402640E620FE4E
S111402A3B34B7751B9CED060F40800220044A
S111403818200097ECE300068400C4076C1EF9
S11140462717EC1E8C00012729EC1E8C0004A9
S11140542739EC1E8C00072749205ECCFCFFA8
S11140626C1CECE30006A41CE41D8A02CA00D8
S1114070ED066C4018200065CCFCFF6C1CECC7
S111407EE30006A41CE41D8A01CA00ED066CD2
S111408C40204ECCFCFF6C1CECE30006A41C90
S110409AE41D8A01CA00ED066C402037CCFD
S11140A7FCFF6C1CECE30006A41CE41D8A0163
S11140B5CA00ED066C402020ED02E64087CDE7
S11140C30008B7D61815B7D6B7C6ED026B4085
S11040D1200AED02E6408759ED026B40CC59
S11140DE0001B757301B823D34B7751B9AC6DC
S11140ECFF6B1FCCFFFF6C1DCC418C164600F1
S11140FAE61F876C80CC418116460018021D1B
S10E410880CC4172164600CC415A16D0
S11141134600191D6D80191FB7C616402ACC30
S11141214142164600E61F876C80CC41811691
S110412F460018021D80CC4172164600CCDB
S111413C0001B757303D41667465722064651A
S111414A74656374696F6E2076616C756573BD
S11141580A00446574656374696E6720436FE2
S11141666C6C6973696F6E2E2E2E0A005072F7
S11141746F78696D6974793A2025580A0053F2
S1114182706565643A2025580A00546573740C
S1114190696E67202E2E2E2E0A204375727241
S111419E656E742076616C75657320617265C0
S10741AC2E2E0A00A5
S11141B03B34B775FC1019270CE603C10A2630
S11141BE06CC000D1641B01F00CC80FB180D7E
S10F41CC0300CFE60387B757301B823D89
S11141D834B745ED84180A4030E77026F830FD
S10441E63D97
S11141E73B34B775EC02C30002AC062607ECAD
S11141F502C300062004EC08E306B757301B93
S1054203823DF6
S10842051D0016073D39
S111420A3B34B7751BF1EAEC062607CC429054
S11142186C1C205E691B191B6D1C2052ED08E6
S1114226EC06B7D61810B7D66C1E8C000A2C06
S111423416EC1CC3FFFF6CE1EF6C1CEC1EC308
S11142420030EDE1EF6B40201FEC088C001003
S11142502618EC1CC3FFFF6CE1ED6C1CEC1E89
S111425EC3427FB7C6E640EDE1ED6B40ED08CC
S111426CEC06B7D61810B7D66D06EC0626AAD7
S111427A18021C80EC021641D8B757301B8284
S10D42883D61626364656600300066
S11142923B34B775EC02C342ABB7C6E64087B7
S10D42A08400C402B757301B823DAE
S11142AA002020202020202020203030303022
S11142B8302020202020202020202020202024
S11142C62020202020904040404040404040B6
S11142D4404040404040400C0C0C0C0C0C0CC4
S11142E20C0C0C4040404040404009090909C2
S11142F009090101010101010101010101019E
S11142FE010101010101010140404040404026
S111430C0A0A0A0A0A0A020202020202020253
S111431A0202020202020202020202024040F9
S110432840402000000000000000000000E4
S1114335000000000000000000000000000076
S1114343000000000000000000000000000068
S111435100000000000000000000000000005A
S111435F00000000000000000000000000004C
S111436D00000000000000000000000000003E
S111437B000000000000000000000000000030
S1114389000000000000000000000000000022
S1114397000000000000000000000000000014
S10943A50000000000000E
S11143AB3B34B775EC021642928C0000270AD0
S11143B9EC02830061C300412002EC02B757FE
S10743C7301B823DE4
S11143CB3B34B7751BF1EECC00006C1C1820BF
S11143D901D8ED06E640C1252714ED06E640A6
S11143E787ED021540EC1CC300016C1C18206D
S11143F501B5CC00006C17CC10006C1AC62069
S11144036B19EC06C300016C06B746E6408751
S11144116C138C006318270123EC138C0064D9
S111441F276DEC138C00651827017BEC138CC1
S111442D006618270172EC138C00662E19EC41
S111443B138C004518270162EC138C00452DEC
S110444930EC138C005827722027EC138CE4
S1114456006F2769EC138C006F2D19EC138C8A
S11144640073182700F0EC138C00752752EC3F
S1114472138C0078274B2000ED06E64087ED02
S1114480021540EC1CC300016C1C1820011E28
S111448EEC08C300026C08B746ED5E6D15EC39
S111449C152C14EC178A00CA086C17C62D6B79
S11144AA19EC15405082006C15CC000A6C828F
S11144B8EC156C80EC1A16420A2073EC08C353
S11144C600026C08B746EC5E6C15ED06E6408D
S11144D4C1752610CC000A6C82EC156C80ECCD
S11144E21A16420A204EED06E640C16F26105F
S11144F0CC00086C82EC156C80EC1A16420AA3
S11144FE2036CC00106C82EC156C80EC1A1683
S111450C420AED06E640C1582620CC10006C91
S111451A1E2013ED1EE640871643ABED1E6B0C
S111452840EC1EC300016C1EED1EE74026E7AA
S1114536CC10006C1E2033EC08C300026C088D
S1114544B746ED5E6D15EC1587ED021540ECE3
S11145521CC300016C1C2052EC08C300026C58
S111456008B746ED5E6D1EEC1E2605CC45EE3A
S111456E6C1EE619C12D2627CC002DED02157A
S111457C40EC1CC300016C1C2017ED1EE64031
S111458A87ED021540EC1CC300016C1CEC1EF6
S1114598C300016C1EED1EE74026E32007CC95
S11145A645C36C1E20C4EC06C300016C06ED78
S11145B406E7401826FE20EC1CB757301B8289
S10445C23DB7
S11145C33C696E7465676572206F6E6C7920BA
S11145D17072696E742C20757365202D6C66F3
S11145DF703F3F20746F2072656C696E6B3EF6
S11145ED00286E756C6C2070747220706173FF
S10845FB736564290052
S11146003B34B7751B98CC00026C8219026D16
S111460E80CC0000B7541641E76C1E18021E43
S111461C8218020280CC41B01643CB6C1CB74E
S108462A57301B823D26
S9034000BC
