S10E4000CF3DFF16425987CE10008E02
S110400B101B27056A000820F6CE4683CD61
S111401810008E46832706180A307020F51615
S107402640F820FE3C
S111402A3B34B7751B9CE603876C80CC41FACF
S1114038164654E607876C80CC41EA164654BF
S111404618020880CC41DC1646540E0880088F
S10F4054CC41C91646542006CC41B516D8
S11140604654CC41A8164654EC088400C4070C
S111406E6C1E2733EC1E8C00012734EC1E8CD4
S111407C00022735EC1E8C00032736EC1E8C48
S111408A00042737EC1E8C00052738EC1E8C32
S111409800062739EC1E8C0007273A203ECC88
S10E40A641A61646542036CC41A41657
S11040B14654202ECC41A21646542026CCA5
S10E40BE41A0164654201ECC419D1664
S11040C946542016CC419A164654200ECCC5
S10E40D641971646542006CC41941676
S11140E14654ECE3000A6C80CC41821646542F
S11140EFCC0001B757301B823D34B7751B98C7
S11140FDCC11D76C1ECC4163164654191E6DAF
S111410B84CC11D56C82CC004E6C80CC004E5E
S111411916402ACC4142164654CC11D36C1EDB
S1114127191E6D84CC11D56C82CC004E6C80B8
S1114135CC004E16402ACC0001B757303D5442
S1114143657374696E672E2E2E2E2028323579
S1114151302C3235302C343536332C343536A0
S111415F33290A0054657374696E672E2E2E80
S111416D2E205B37382C37382C343536352C61
S111417B343536355D0A000A4B6579732050E1
S11141897265737365643A25580A0053570033
S11141975345004E57004E4500570045005357
S11141A5004E002020202020204172726F77EF
S11141B33A0020202020204F62737461636C58
S11141C1653A4E6561720A0020202020204FCE
S11141CF62737461636C653A4661720A005053
S11141DD726F78696D6974793A25580A005436
S11141EB656D70657261747572653A25580AC7
S10E41F90053706565643A25580A0005
S11142043B34B775FC1019270CE603C10A26DB
S111421206CC000D1642041F00CC80FB180DD4
S10F42200300CFE60387B757301B823D34
S111422C34B745ED84180A4030E77026F830A8
S104423A3D42
S111423B3B34B775EC02C30002AC062607EC58
S111424902C300062004EC08E306B757301B3E
S1054257823DA2
S10842591D0016073DE5
S111425E3B34B7751BF1EAEC062607CC42E4AC
S111426C6C1C205E691B191B6D1C2052ED0892
S111427AEC06B7D61810B7D66C1E8C000A2CB2
S111428816EC1CC3FFFF6CE1EF6C1CEC1EC3B4
S11142960030EDE1EF6B40201FEC088C0010AF
S11142A42618EC1CC3FFFF6CE1ED6C1CEC1E35
S11142B2C342D3B7C6E640EDE1ED6B40ED0824
S11142C0EC06B7D61810B7D66D06EC0626AA83
S11142CE18021C80EC0216422CB757301B82DB
S10D42DC3D61626364656600300012
S11142E63B34B775EC02C342FFB7C6E640870F
S10D42F48400C402B757301B823D5A
S11142FE0020202020202020202030303030CE
S111430C3020202020202020202020202020CF
S111431A202020202090404040404040404061
S1114328404040404040400C0C0C0C0C0C0C6F
S11143360C0C0C40404040404040090909096D
S1114344090901010101010101010101010149
S11143520101010101010101404040404040D1
S11143600A0A0A0A0A0A0202020202020202FF
S111436E0202020202020202020202024040A5
S110437C4040200000000000000000000090
S1114389000000000000000000000000000022
S1114397000000000000000000000000000014
S11143A5000000000000000000000000000006
S11143B30000000000000000000000000000F8
S11143C10000000000000000000000000000EA
S11143CF0000000000000000000000000000DC
S11143DD0000000000000000000000000000CE
S11143EB0000000000000000000000000000C0
S10943F9000000000000BA
S11143FF3B34B775EC021642E68C0000270A28
S111440DEC02830061C300412002EC02B757A9
S107441B301B823D8F
S111441F3B34B7751BF1EECC00006C1C18206A
S111442D01D8ED06E640C1252714ED06E64051
S111443B87ED021540EC1CC300016C1C182018
S111444901B5CC00006C17CC10006C1AC62014
S11144576B19EC06C300016C06B746E64087FD
S11144656C138C006318270123EC138C006485
S1114473276DEC138C00651827017BEC138C6D
S1114481006618270172EC138C00662E19ECED
S111448F138C004518270162EC138C00452D98
S110449D30EC138C005827722027EC138C90
S11144AA006F2769EC138C006F2D19EC138C36
S11144B80073182700F0EC138C00752752ECEB
S11144C6138C0078274B2000ED06E64087EDAE
S11144D4021540EC1CC300016C1C1820011ED4
S11144E2EC08C300026C08B746ED5E6D15ECE5
S11144F0152C14EC178A00CA086C17C62D6B25
S11144FE19EC15405082006C15CC000A6C823B
S111450CEC156C80EC1A16425E2073EC08C3AA
S111451A00026C08B746EC5E6C15ED06E64038
S1114528C1752610CC000A6C82EC156C80EC78
S11145361A16425E204EED06E640C16F2610B6
S1114544CC00086C82EC156C80EC1A16425EFA
S11145522036CC00106C82EC156C80EC1A162E
S1114560425EED06E640C1582620CC10006CE9
S111456E1E2013ED1EE640871643FFED1E6B64
S111457C40EC1EC300016C1EED1EE74026E756
S111458ACC10006C1E2033EC08C300026C0839
S1114598B746ED5E6D15EC1587ED021540EC8F
S11145A61CC300016C1C2052EC08C300026C04
S11145B408B746ED5E6D1EEC1E2605CC464291
S11145C26C1EE619C12D2627CC002DED021526
S11145D040EC1CC300016C1C2017ED1EE640DD
S11145DE87ED021540EC1CC300016C1CEC1EA2
S11145ECC300016C1EED1EE74026E32007CC41
S11145FA46176C1E20C4EC06C300016C06EDCF
S111460806E7401826FE20EC1CB757301B8234
S10446163D62
S11146173C696E7465676572206F6E6C792065
S11146257072696E742C20757365202D6C669E
S1114633703F3F20746F2072656C696E6B3EA1
S111464100286E756C6C2070747220706173AA
S108464F7365642900FD
S11146543B34B7751B98CC00026C8219026DC2
S111466280CC0000B75416423B6C1E18021E9A
S11146708218020280CC420416441F6C1CB750
S108467E57301B823DD2
S9034000BC
