#line 1 "M:\SYSC2003\Assignment5\52\assign52.c"

#line 9 "M:\SYSC2003\Assignment5\52\assign52.c"
#line 1 "C:/icc/include/hcs12dp256.h"




#line 6 "C:/icc/include/hcs12dp256.h"
#line 1 "C:/icc/include/hc12def.h"




#line 6 "C:/icc/include/hc12def.h"
typedef enum {
	BAUD38K = 13, BAUD19K = 26, BAUD14K = 35,
	BAUD9600 = 52, BAUD4800 = 104, BAUD2400 = 208,
	BAUD1200 = 417, BAUD600 = 833, BAUD300 = 2273
	} BaudRate;
void setbaud(BaudRate);




































typedef struct
	{
	char fp1[5];
	char fp2[5];
	} _FP_CONTEXT;

void _FP_SaveContext(_FP_CONTEXT *buf);
void _FP_RestoreContext(_FP_CONTEXT *buf);

void write_eeprom (unsigned char *addr, unsigned char b);

#pragma nonpaged_function _icall
int _icall(int (*)(void));

#line 7 "C:/icc/include/hcs12dp256.h"


#line 11 "C:/icc/include/hcs12dp256.h"














































































































































































































































































































































































































































































































































































































































































































































#line 10 "M:\SYSC2003\Assignment5\52\assign52.c"




char keys[4][4]= {{'1','4','7','E'},
	 			  {'2','5','8','0'},
				  {'3','6','9','F'},
				  {'A','B','C','D'}};

char log2[9] = {0, 0, 1, 0, 2, 0, 0, 0, 3};


char key = 0;done =0;
char speed=100, temp=24;



#pragma interrupt_handler kb_ISR()
void kb_ISR()
{
 	 int i;
	 char lowerPTP;
 	 asm("SEI");
 *(unsigned char volatile *)(0 + 0x0266) = 0x00;
 *(unsigned char volatile *)(0 + 0x0267) = *(unsigned char volatile *)(0 + 0x0267);

 	 for(lowerPTP=0x01; lowerPTP<=0x08; lowerPTP<<=1)
	 {
 *(unsigned char volatile *)(0 + 0x0258) &= 0xF0;
 *(unsigned char volatile *)(0 + 0x0258) += lowerPTP;


		 if(*(unsigned char volatile *)(0 + 0x0260) == 0x10)
		 {
	  	 	key = keys[0][log2[lowerPTP]];
			break;
	 	 }

	 	 if(*(unsigned char volatile *)(0 + 0x0260) == 0x20)
	 	 {
	      	key = keys[1][log2[lowerPTP]];
			break;
	 	 }

	 	 if(*(unsigned char volatile *)(0 + 0x0260) == 0x40)
	 	 {
	 	  	key = keys[2][log2[lowerPTP]];
			break;
	 	 }

	 	 if(*(unsigned char volatile *)(0 + 0x0260) == 0x80)
	 	 {
	 	  	key = keys[3][log2[lowerPTP]];
			break;
	 	 }
	 }

	 switch (key)
			{
			 	case 'E':
					 speed--;
					 setSpeed(
					 updateStats(speed, temp);
					 break;

				case 'D':
					 speed++;
					 updateStats(speed, temp);
					 break;

				case '0':
					 done = 1;
					 break;
				default:
					 delay(220);

			}
     key = 0;
 *(unsigned char volatile *)(0 + 0x0258) |= 0x0F;
 *(unsigned char volatile *)(0 + 0x0266) = 0xF0;
	 asm("CLI");
}

void delay(int ms)
{
   int i;
 *(unsigned char volatile *)(0 + 0x46)= 0x90;
 *(unsigned char volatile *)(0 + 0x4D) = 0x03;
 *(unsigned char volatile *)(0 + 0x40) = 0x01;
   for (i=0;i<ms;i++)
   {
 *(unsigned short volatile *)(0 + 0x50) = *(unsigned short volatile *)(0 + 0x44)+1000;
	 while(!(*(unsigned char volatile *)(0 + 0x4E) & 0x01));
   }
 *(unsigned char volatile *)(0 + 0x46) = 0x00;

}


void setSpeed(char speed)
{





}


const speedStr[] = { 'S', 'p', 'e', 'e', 'd', ':' };
const temperatureStr[] = { 'T', 'e', 'm', 'p', 'e', 'r', 'a', 't', 'u', 'r', 'e', ':', ' ' };
const itoaTable[] = {'0', '1', '2', '3', '4', '5', '6', '7', '8', '9' };

void displayStrs()
{
 	 int i;

	 LCD_instruction(0x0C);
	 LCD_instruction(0x01);

	 for (i=0; i<6; i++)
	 {
	  	 LCD_display(speedStr[i]);
	 }

	 LCD_instruction(0xC0);

	 for (i=0; i<12; i++)
	 {
	  	 LCD_display(temperatureStr[i]);
	 }
}

void updateStats(char speed, char temp)
{

 	 LCD_instruction(0x86);
	 LCD_display(itoaTable[speed / 100]);
	 LCD_display(itoaTable[(speed % 100) / 10]);
	 LCD_display(itoaTable[(speed % 100) % 10]);
	 LCD_display('k'); LCD_display('m'); LCD_display('/'); LCD_display('h');

	 LCD_instruction(0xCC);
	 LCD_display(itoaTable[(temp % 100) / 10]);
	 LCD_display(itoaTable[(temp % 100) % 10]);
	 LCD_display(0b11011111); LCD_display('C');

 *(unsigned char volatile *)(0 + 0x0258) |= 0x0F;

}


void init()
{

	 asm("MOVW #_kb_ISR, $3FCC");


	 Lcd2PP_Init();



 *(unsigned char volatile *)(0 + 0x0242) |= 0x60;
 *(unsigned char volatile *)(0 + 0x025A) |= 0xA0;
 *(unsigned char volatile *)(0 + 0x0258) |= 0x20;
 *(unsigned char volatile *)(0 + 0x0252) = 0x08;
 *(unsigned char volatile *)(0 + 0x0262) = 0x0F;
 *(unsigned char volatile *)(0 + 0x0250) = 0x08;
 *(unsigned char volatile *)(0 + 0x0266) = 0xF0;
 *(unsigned char volatile *)(0 + 0x0267) = *(unsigned char volatile *)(0 + 0x0267);
 *(unsigned char volatile *)(0 + 0x0265) = 0xF0;
 *(unsigned char volatile *)(0 + 0x0264) = 0x00;





}


void main()
{


	 init();


	 asm("CLI");
	 displayStrs();
	 updateStats(speed, temp);
 *(unsigned char volatile *)(0 + 0x0258) |= 0x0F;

	 while(!done)
	 {


	 }

	 asm("SWI");
}
