                        .module assign43a.c
                        .area text
 0000           _stepSeq::
 0000 0040              .word 64
 0002 0000              .word 0
 0004 0020              .word 32
 0006 0060              .word 96
 0008 0000              .word 0
 000A                   .dbfile M:\SYSC2003\Assignment4\43a\assign43a.c
 000A                   .dbsym e stepSeq _stepSeq A[10:5]I
                        .area data
 0000                   .dbfile M:\SYSC2003\Assignment4\43a\assign43a.c
 0000           _step::
 0000                   .blkb 1
                        .area idata
 0000 00                .byte 0
                        .area data
 0001                   .dbfile M:\SYSC2003\Assignment4\43a\assign43a.c
 0001                   .dbsym e step _step c
                        .area text
 000A                   .dbfile M:\SYSC2003\Assignment4\43a\assign43a.c
 000A                   .dbfunc e delay _delay fV
 000A           ;              i -> -4,x
 000A           ;              j -> -2,x
 000A           ;             ms -> 3,x
 000A           _delay::
 000A 3B                pshd
 000B 34                pshx
 000C B775              tfr s,x
 000E 1B9A              leas -6,sp
 0010                   .dbline -1
 0010                   .dbline 20
 0010           ; /*
 0010           ; *assign43a.c A stepper motor control (Rotates the motor 2 turns CW and 2 turns CCW)
 0010           ; *@author David Yao(100861054) and Amente Bekele(100875934)
 0010           ; *(aassign43a.prj, assign43a.c, assign43basm.s, DP256reg.s (provided),
 0010           ; assign43a.SRC, and assign43a.s19) 
 0010           ; *
 0010           ; */
 0010           ; 
 0010           ; #include "hcs12dp256.h"
 0010           ; 
 0010           ; //Define directions
 0010           ; #define CW  1
 0010           ; #define CCW 0
 0010           ; 
 0010           ; const stepSeq[] = {  0x40, 0x00, 0x20, 0x60, 0x00 }; // Motor sequence CW from left and CCW from right
 0010           ; char step = 0; // Step counter to keep track of position in motor sequence
 0010           ; 
 0010           ; //Delay function, delays for a while (ms*4000 CPU cycles)
 0010           ; void delay(char ms)
 0010           ; {
 0010                   .dbline 22
 0010           ;        int i, j;
 0010           ;        for(i=0; i<ms; i++)
 0010 CC0000            ldd #0
 0013 6C1C              std -4,x
 0015 201B              bra L7
 0017           L4:
 0017                   .dbline 23
 0017           ;               for(j=0; j<4000; j++)
 0017 CC0000            ldd #0
 001A 6C1E              std -2,x
 001C           L8:
 001C                   .dbline 24
 001C                   .dbline 24
 001C A7                        nop
 001D           
 001D                   .dbline 24
 001D           L9:
 001D                   .dbline 23
 001D EC1E              ldd -2,x
 001F C30001            addd #1
 0022 6C1E              std -2,x
 0024                   .dbline 23
 0024 EC1E              ldd -2,x
 0026 8C0FA0            cpd #4000
 0029 2DF1              blt L8
 002B           L5:
 002B                   .dbline 22
 002B EC1C              ldd -4,x
 002D C30001            addd #1
 0030 6C1C              std -4,x
 0032           L7:
 0032                   .dbline 22
 0032 E603              ldab 3,x
 0034 87                clra
 0035 6C1A              std -6,x
 0037 EC1C              ldd -4,x
 0039 AC1A              cpd -6,x
 003B 2DDA              blt L4
 003D                   .dbline -2
 003D                   .dbline 25
 003D           ;               { asm("nop"); }
 003D           ; }
 003D           L3:
 003D B757              tfr x,s
 003F 30                pulx
 0040 1B82              leas 2,sp
 0042                   .dbline 0 ; func end
 0042 3D                rts
 0043                   .dbsym l i -4 I
 0043                   .dbsym l j -2 I
 0043                   .dbsym l ms 2 I
 0043                   .dbsym l ms 3 c
 0043                   .dbend
 0043                   .dbfunc e doStep _doStep fV
 0043           ;      direction -> 3,x
 0043           _doStep::
 0043 3B                pshd
 0044 34                pshx
 0045 B775              tfr s,x
 0047                   .dbline -1
 0047                   .dbline 29
 0047           ; 
 0047           ; //subroutine to move the motor one step (1 CW, 0 CCW)
 0047           ; void doStep(char direction)
 0047           ; {
 0047                   .dbline 30
 0047           ;        if (direction)
 0047 E703              tst 3,x
 0049 2725              beq L13
 004B                   .dbline 31
 004B           ;        {
 004B                   .dbline 32
 004B           ;               step++; // Increment step counter, to the next in the sequence
 004B F60000            ldab _step
 004E 87                clra
 004F C30001            addd #1
 0052 7B0000            stab _step
 0055                   .dbline 33
 0055           ;               if (step == 4)
 0055 F60000            ldab _step
 0058 C104              cmpb #4
 005A 2603              bne L15
 005C                   .dbline 34
 005C           ;                  step = 0;
 005C 790000            clr _step
 005F           L15:
 005F                   .dbline 35
 005F           ;               PTT = stepSeq[step]; // Write the next sequence to the motor
 005F F60000            ldab _step
 0062 87                clra
 0063 59                lsld
 0064 C30000            addd #_stepSeq
 0067 B7C6              xgdy
 0069 EC40              ldd 0,y
 006B 7B0240            stab 0x240
 006E                   .dbline 37
 006E           ;               
 006E           ;        }
 006E 2025              bra L14
 0070           L13:
 0070                   .dbline 39
 0070           ;        else
 0070           ;        {
 0070                   .dbline 40
 0070           ;               step--; // Decrement the step counter to the previous in the sequence
 0070 F60000            ldab _step
 0073 87                clra
 0074 830001            subd #1
 0077 7B0000            stab _step
 007A                   .dbline 41
 007A           ;               if (step == -1)
 007A F60000            ldab _step
 007D C1FF              cmpb #-1
 007F 2605              bne L17
 0081                   .dbline 42
 0081           ;                  step = 3;
 0081 C603              ldab #3
 0083 7B0000            stab _step
 0086           L17:
 0086                   .dbline 43
 0086           ;               PTT = stepSeq[step]; // Write the next sequence to the motor
 0086 F60000            ldab _step
 0089 87                clra
 008A 59                lsld
 008B C30000            addd #_stepSeq
 008E B7C6              xgdy
 0090 EC40              ldd 0,y
 0092 7B0240            stab 0x240
 0095                   .dbline 44
 0095           ;        }
 0095           L14:
 0095                   .dbline 46
 0095           ;        
 0095           ;        delay(5); // Delay for a while
 0095 CC0005            ldd #5
 0098 16000A            jsr _delay
 009B                   .dbline -2
 009B                   .dbline 47
 009B           ; }
 009B           L12:
 009B B757              tfr x,s
 009D 30                pulx
 009E 1B82              leas 2,sp
 00A0                   .dbline 0 ; func end
 00A0 3D                rts
 00A1                   .dbsym l direction 2 I
 00A1                   .dbsym l direction 3 c
 00A1                   .dbend
 00A1                   .dbfunc e main _main fV
 00A1           ;              i -> -2,x
 00A1           _main::
 00A1 34                pshx
 00A2 B775              tfr s,x
 00A4 1B9E              leas -2,sp
 00A6                   .dbline -1
 00A6                   .dbline 50
 00A6           ; 
 00A6           ; void main()
 00A6           ; {
 00A6                   .dbline 54
 00A6           ;     // Main program turns the motor CW 2 turns and CCW 2 turns
 00A6           ;        int i; // Local var for loop counting
 00A6           ;        // Initialize stepper motor
 00A6           ;        DDRT = DDRT | 0b01100000; 
 00A6 1C024260          bset 0x242,#96
 00AA                   .dbline 55
 00AA           ;        DDRP = DDRP | 0b00100000;
 00AA 1C025A20          bset 0x25a,#32
 00AE                   .dbline 56
 00AE           ;        PTP  =  PTP | 0b00100000; // Enable the stepper chip    
 00AE 1C025820          bset 0x258,#32
 00B2                   .dbline 58
 00B2           ;        
 00B2           ;        for(i=0; i<40; i++)
 00B2 CC0000            ldd #0
 00B5 6C1E              std -2,x
 00B7           L20:
 00B7                   .dbline 59
 00B7                   .dbline 60
 00B7 CC0001            ldd #1
 00BA 160043            jsr _doStep
 00BD                   .dbline 61
 00BD           L21:
 00BD                   .dbline 58
 00BD EC1E              ldd -2,x
 00BF C30001            addd #1
 00C2 6C1E              std -2,x
 00C4                   .dbline 58
 00C4 EC1E              ldd -2,x
 00C6 8C0028            cpd #40
 00C9 2DEC              blt L20
 00CB                   .dbline 62
 00CB           ;        {
 00CB           ;               doStep(CW); // Do steps clock wise, 5 steps/quarter turn, 20 steps per turn, 40 steps for two turns
 00CB           ;         }
 00CB           ;        delay(20);
 00CB CC0014            ldd #20
 00CE 16000A            jsr _delay
 00D1                   .dbline 64
 00D1           ;       
 00D1           ;        for(i=0; i<40; i++)
 00D1 CC0000            ldd #0
 00D4 6C1E              std -2,x
 00D6           L24:
 00D6                   .dbline 65
 00D6 CC0000            ldd #0
 00D9 160043            jsr _doStep
 00DC           L25:
 00DC                   .dbline 64
 00DC EC1E              ldd -2,x
 00DE C30001            addd #1
 00E1 6C1E              std -2,x
 00E3                   .dbline 64
 00E3 EC1E              ldd -2,x
 00E5 8C0028            cpd #40
 00E8 2DEC              blt L24
 00EA                   .dbline 67
 00EA           ;               doStep(CCW); // Do steps counter clock wise, 5 steps/quarter turn, 20 steps per turn, 40 steps for two turns
 00EA           ;                        
 00EA           ;        asm("swi"); //End program
 00EA 3F                        swi
 00EB           
 00EB                   .dbline -2
 00EB                   .dbline 68
 00EB           ; }
 00EB           L19:
 00EB B757              tfr x,s
 00ED 30                pulx
 00EE                   .dbline 0 ; func end
 00EE 3D                rts
 00EF                   .dbsym l i -2 I
 00EF                   .dbend
