WARNING: EXTCODE CODE AREA DO NOT CONTAIN RELOCATED ADDRESSES.
THIS WILL BE REMEDIED IN A LATER RELEASE.
                        .module assign43a.c
                        .area text
 402A            _stepSeq::
 402A  0040              .word 64
 402C  0000              .word 0
 402E  0020              .word 32
 4030  0060              .word 96
 4032  0000              .word 0
 4034                    .dbfile M:\SYSC2003\Assignment4\43a\assign43a.c
 4034                    .dbsym e stepSeq _stepSeq A[10:5]I
                        .area data
--- 0000                   .dbfile M:\SYSC2003\Assignment4\43a\assign43a.c
 1000            _step::
 1000                    .blkb 1
                        .area idata
--- 0000 00                .byte 0
                        .area data
--- 0001                   .dbfile M:\SYSC2003\Assignment4\43a\assign43a.c
--- 0001                   .dbsym e step _step c
                        .area text
--- 000A                   .dbfile M:\SYSC2003\Assignment4\43a\assign43a.c
--- 000A                   .dbfunc e delay _delay fV
--- 000A           ;              i -> -4,x
--- 000A           ;              j -> -2,x
--- 000A           ;             ms -> 3,x
 4034            _delay::
 4034  3B                pshd
 4035  34                pshx
 4036  B775              tfr s,x
 4038  1B9A              leas -6,sp
 403A                    .dbline -1
 403A                    .dbline 20
 403A            ; /*
 403A            ; *assign43a.c A stepper motor control (Rotates the motor 2 turns CW and 2 turns CCW)
 403A            ; *@author David Yao(100861054) and Amente Bekele(100875934)
 403A            ; *(aassign43a.prj, assign43a.c, assign43basm.s, DP256reg.s (provided),
 403A            ; assign43a.SRC, and assign43a.s19) 
 403A            ; *
 403A            ; */
 403A            ; 
 403A            ; #include "hcs12dp256.h"
 403A            ; 
 403A            ; //Define directions
 403A            ; #define CW  1
 403A            ; #define CCW 0
 403A            ; 
 403A            ; const stepSeq[] = {  0x40, 0x00, 0x20, 0x60, 0x00 }; // Motor sequence CW from left and CCW from right
 403A            ; char step = 0; // Step counter to keep track of position in motor sequence
 403A            ; 
 403A            ; //Delay function, delays for a while (ms*4000 CPU cycles)
 403A            ; void delay(char ms)
 403A            ; {
 403A                    .dbline 22
 403A            ;        int i, j;
 403A            ;        for(i=0; i<ms; i++)
 403A  CC0000            ldd #0
 403D  6C1C              std -4,x
 403F  201B              bra L7
 4041            L4:
 4041                    .dbline 23
 4041            ;               for(j=0; j<4000; j++)
 4041  CC0000            ldd #0
 4044  6C1E              std -2,x
 4046            L8:
 4046                    .dbline 24
 4046                    .dbline 24
 4046  A7                        nop
 4047            
 4047                    .dbline 24
 4047            L9:
 4047                    .dbline 23
 4047  EC1E              ldd -2,x
 4049  C30001            addd #1
 404C  6C1E              std -2,x
 404E                    .dbline 23
 404E  EC1E              ldd -2,x
 4050  8C0FA0            cpd #4000
 4053  2DF1              blt L8
 4055            L5:
 4055                    .dbline 22
 4055  EC1C              ldd -4,x
 4057  C30001            addd #1
 405A  6C1C              std -4,x
 405C            L7:
 405C                    .dbline 22
 405C  E603              ldab 3,x
 405E  87                clra
 405F  6C1A              std -6,x
 4061  EC1C              ldd -4,x
 4063  AC1A              cpd -6,x
 4065  2DDA              blt L4
 4067                    .dbline -2
 4067                    .dbline 25
 4067            ;               { asm("nop"); }
 4067            ; }
 4067            L3:
 4067  B757              tfr x,s
 4069  30                pulx
 406A  1B82              leas 2,sp
 406C                    .dbline 0 ; func end
 406C  3D                rts
 406D                    .dbsym l i -4 I
 406D                    .dbsym l j -2 I
 406D                    .dbsym l ms 2 I
 406D                    .dbsym l ms 3 c
 406D                    .dbend
 406D                    .dbfunc e doStep _doStep fV
 406D            ;      direction -> 3,x
 406D            _doStep::
 406D  3B                pshd
 406E  34                pshx
 406F  B775              tfr s,x
 4071                    .dbline -1
 4071                    .dbline 29
 4071            ; 
 4071            ; //subroutine to move the motor one step (1 CW, 0 CCW)
 4071            ; void doStep(char direction)
 4071            ; {
 4071                    .dbline 30
 4071            ;        if (direction)
 4071  E703              tst 3,x
 4073  2725              beq L13
 4075                    .dbline 31
 4075            ;        {
 4075                    .dbline 32
 4075            ;               step++; // Increment step counter, to the next in the sequence
 4075  F61000            ldab _step
 4078  87                clra
 4079  C30001            addd #1
 407C  7B1000            stab _step
 407F                    .dbline 33
 407F            ;               if (step == 4)
 407F  F61000            ldab _step
 4082  C104              cmpb #4
 4084  2603              bne L15
 4086                    .dbline 34
 4086            ;                  step = 0;
 4086  791000            clr _step
 4089            L15:
 4089                    .dbline 35
 4089            ;               PTT = stepSeq[step]; // Write the next sequence to the motor
 4089  F61000            ldab _step
 408C  87                clra
 408D  59                lsld
 408E  C3402A            addd #_stepSeq
 4091  B7C6              xgdy
 4093  EC40              ldd 0,y
 4095  7B0240            stab 0x240
 4098                    .dbline 37
 4098            ;               
 4098            ;        }
 4098  2025              bra L14
 409A            L13:
 409A                    .dbline 39
 409A            ;        else
 409A            ;        {
 409A                    .dbline 40
 409A            ;               step--; // Decrement the step counter to the previous in the sequence
 409A  F61000            ldab _step
 409D  87                clra
 409E  830001            subd #1
 40A1  7B1000            stab _step
 40A4                    .dbline 41
 40A4            ;               if (step == -1)
 40A4  F61000            ldab _step
 40A7  C1FF              cmpb #-1
 40A9  2605              bne L17
 40AB                    .dbline 42
 40AB            ;                  step = 3;
 40AB  C603              ldab #3
 40AD  7B1000            stab _step
 40B0            L17:
 40B0                    .dbline 43
 40B0            ;               PTT = stepSeq[step]; // Write the next sequence to the motor
 40B0  F61000            ldab _step
 40B3  87                clra
 40B4  59                lsld
 40B5  C3402A            addd #_stepSeq
 40B8  B7C6              xgdy
 40BA  EC40              ldd 0,y
 40BC  7B0240            stab 0x240
 40BF                    .dbline 44
 40BF            ;        }
 40BF            L14:
 40BF                    .dbline 46
 40BF            ;        
 40BF            ;        delay(5); // Delay for a while
 40BF  CC0005            ldd #5
 40C2  164034            jsr _delay
 40C5                    .dbline -2
 40C5                    .dbline 47
 40C5            ; }
 40C5            L12:
 40C5  B757              tfr x,s
 40C7  30                pulx
 40C8  1B82              leas 2,sp
 40CA                    .dbline 0 ; func end
 40CA  3D                rts
 40CB                    .dbsym l direction 2 I
 40CB                    .dbsym l direction 3 c
 40CB                    .dbend
 40CB                    .dbfunc e main _main fV
 40CB            ;              i -> -2,x
 40CB            _main::
 40CB  34                pshx
 40CC  B775              tfr s,x
 40CE  1B9E              leas -2,sp
 40D0                    .dbline -1
 40D0                    .dbline 50
 40D0            ; 
 40D0            ; void main()
 40D0            ; {
 40D0                    .dbline 54
 40D0            ;     // Main program turns the motor CW 2 turns and CCW 2 turns
 40D0            ;        int i; // Local var for loop counting
 40D0            ;        // Initialize stepper motor
 40D0            ;        DDRT = DDRT | 0b01100000; 
 40D0  1C024260          bset 0x242,#96
 40D4                    .dbline 55
 40D4            ;        DDRP = DDRP | 0b00100000;
 40D4  1C025A20          bset 0x25a,#32
 40D8                    .dbline 56
 40D8            ;        PTP  =  PTP | 0b00100000; // Enable the stepper chip    
 40D8  1C025820          bset 0x258,#32
 40DC                    .dbline 58
 40DC            ;        
 40DC            ;        for(i=0; i<40; i++)
 40DC  CC0000            ldd #0
 40DF  6C1E              std -2,x
 40E1            L20:
 40E1                    .dbline 59
 40E1                    .dbline 60
 40E1  CC0001            ldd #1
 40E4  16406D            jsr _doStep
 40E7                    .dbline 61
 40E7            L21:
 40E7                    .dbline 58
 40E7  EC1E              ldd -2,x
 40E9  C30001            addd #1
 40EC  6C1E              std -2,x
 40EE                    .dbline 58
 40EE  EC1E              ldd -2,x
 40F0  8C0028            cpd #40
 40F3  2DEC              blt L20
 40F5                    .dbline 62
 40F5            ;        {
 40F5            ;               doStep(CW); // Do steps clock wise, 5 steps/quarter turn, 20 steps per turn, 40 steps for two turns
 40F5            ;         }
 40F5            ;        delay(20);
 40F5  CC0014            ldd #20
 40F8  164034            jsr _delay
 40FB                    .dbline 64
 40FB            ;       
 40FB            ;        for(i=0; i<40; i++)
 40FB  CC0000            ldd #0
 40FE  6C1E              std -2,x
 4100            L24:
 4100                    .dbline 65
 4100  CC0000            ldd #0
 4103  16406D            jsr _doStep
 4106            L25:
 4106                    .dbline 64
 4106  EC1E              ldd -2,x
 4108  C30001            addd #1
 410B  6C1E              std -2,x
 410D                    .dbline 64
 410D  EC1E              ldd -2,x
 410F  8C0028            cpd #40
 4112  2DEC              blt L24
 4114                    .dbline 67
 4114            ;               doStep(CCW); // Do steps counter clock wise, 5 steps/quarter turn, 20 steps per turn, 40 steps for two turns
 4114            ;                        
 4114            ;        asm("swi"); //End program
 4114  3F                        swi
 4115            
 4115                    .dbline -2
 4115                    .dbline 68
 4115            ; }
 4115            L19:
 4115  B757              tfr x,s
 4117  30                pulx
 4118                    .dbline 0 ; func end
 4118  3D                rts
 4119                    .dbsym l i -2 I
 4119                    .dbend
